﻿<?xml version="1.0"?>
<!-- Generator: Adobe Illustrator 10.0, SVG Export Plug-In . SVG Version: 3.0.0 Build 77)  -->
<!DOCTYPE svg PUBLIC "-//W3C//DTD SVG 1.0//EN" "http://www.w3.org/TR/2001/REC-SVG-20010904/DTD/svg10.dtd"[
	<!ENTITY ns_flows "http://ns.adobe.com/Flows/1.0/">
	<!ENTITY ns_svg "http://www.w3.org/2000/svg">
	<!ENTITY ns_xlink "http://www.w3.org/1999/xlink">
	<!ENTITY st0 "font-size:6.6349px;">
	<!ENTITY st1 "fill:none;stroke:#000000;stroke-width:1.1331;stroke-linecap:round;stroke-linejoin:round;">
	<!ENTITY st2 "fill:none;stroke:#000000;stroke-width:0.8499;stroke-linecap:round;stroke-linejoin:round;">
	<!ENTITY st3 "font-family:'Arial';">
	<!ATTLIST svg
		xmlns:ewd CDATA #FIXED "http://shcl.co.jp/ewd"
		xmlns:a CDATA #FIXED "http://ns.adobe.com/AdobeSVGViewerExtensions/3.0/"
		ewd:ver CDATA #IMPLIED>
	<!ATTLIST g
		ewd:pinNo CDATA #IMPLIED>
]>
<svg width="26.629" height="34.277" viewBox="0 0 26.629 34.277" style="overflow:visible;enable-background:new 0 0 26.629 34.277" xml:space="preserve" onload="call_execInitLoadProc_svg('connector')" ewd:ver="L2.1.2.5" xmlns="&ns_svg;" xmlns:ewd="http://shcl.co.jp/ewd" xmlns:a="http://ns.adobe.com/AdobeSVGViewerExtensions/3.0/" xmlns:xlink="&ns_xlink;">
<script type="text/javascript" xlink:href="../../../../../system/js/ewd/fig/svgfig.js"/>
<g id="レイヤー_1">
	<g>
		<path style="&st1;" d="M2.691,1.417c0-0.469-0.38-0.85-0.85-0.85"/>
		<path style="&st1;" d="M24.646,30.878c0.782,0,1.417-0.634,1.417-1.417"/>
		<path style="&st1;" d="M0.567,29.462c0,0.782,0.634,1.417,1.416,1.417"/>
		<path style="&st1;" d="M26.062,1.417c0-0.469-0.38-0.85-0.85-0.85"/>
		<path style="&st1;" d="M1.417,0.567c-0.469,0-0.85,0.381-0.85,0.85"/>
		<path style="&st1;" d="M24.787,0.567c-0.469,0-0.85,0.381-0.85,0.85"/>
		<path style="&st1;" d="M26.062,7.365c0-0.469-0.38-0.85-0.85-0.85"/>
		<path style="&st1;" d="M24.787,6.516c-0.469,0-0.85,0.38-0.85,0.85"/>
		<path style="&st2;" d="M10.482,8.215h5.666"/>
		<path style="&st2;" d="M4.816,15.298v12.748h16.997V15.298H4.816"/>
		<path style="&st2;" d="M13.315,28.045V15.298"/>
		<path style="&st2;" d="M10.482,10.198V3.966"/>
		<path style="&st2;" d="M10.482,6.799h5.666"/>
		<path style="&st2;" d="M16.147,10.198V3.966"/>
		<path style="&st1;" d="M25.213,0.567h-0.425"/>
		<path style="&st1;" d="M23.938,1.417v11.048"/>
		<path style="&st1;" d="M23.938,12.465h-2.125"/>
		<path style="&st1;" d="M0.567,1.417v28.045"/>
		<path style="&st1;" d="M2.691,12.465h2.125"/>
		<path style="&st1;" d="M2.691,1.417v11.048"/>
		<path style="&st1;" d="M1.417,0.567h0.425"/>
		<path style="&st1;" d="M26.062,1.417v28.045"/>
		<path style="&st2;" d="M1.983,30.878h22.663"/>
		<path style="&st2;" d="M4.816,3.966h16.997"/>
		<path style="&st1;" d="M4.816,12.465V1.983h16.997v10.482"/>
		<path style="&st1;" d="M1.983,30.878v2.833h22.663v-2.833"/>
		<path style="&st2;" d="M0.567,12.465h2.125"/>
		<path style="&st2;" d="M21.813,33.711v-2.833"/>
		<path style="&st2;" d="M4.816,33.711v-2.833"/>
		<path style="&st2;" d="M23.938,12.465h2.125"/>
		<path style="&st2;" d="M9.065,33.711v-1.417h8.499v1.417"/>
		<path style="&st1;" d="M25.213,6.516h-0.425"/>
		<g ewd:pinNo="1">
			<text transform="matrix(0.88 0 0 1 7.3994 23.6406)"><tspan x="0" y="0" style="&st3; &st0;">1</tspan></text>
		</g>
		<g ewd:pinNo="2">
			<text transform="matrix(0.88 0 0 1 15.8982 23.6406)"><tspan x="0" y="0" style="&st3; &st0;">2</tspan></text>
		</g>
	</g>
</g>
</svg>