﻿<?xml version="1.0"?>
<!-- Generator: Adobe Illustrator 10.0, SVG Export Plug-In . SVG Version: 3.0.0 Build 77)  -->
<!DOCTYPE svg PUBLIC "-//W3C//DTD SVG 1.0//EN" "http://www.w3.org/TR/2001/REC-SVG-20010904/DTD/svg10.dtd"[
	<!ENTITY ns_flows "http://ns.adobe.com/Flows/1.0/">
	<!ENTITY ns_svg "http://www.w3.org/2000/svg">
	<!ENTITY ns_xlink "http://www.w3.org/1999/xlink">
	<!ENTITY st0 "font-size:6.6349px;">
	<!ENTITY st1 "fill:none;stroke:#000000;stroke-width:1.1331;stroke-linecap:round;stroke-linejoin:round;">
	<!ENTITY st2 "fill:none;stroke:#000000;stroke-width:0.8499;stroke-linecap:round;stroke-linejoin:round;">
	<!ENTITY st3 "font-family:'Arial';">
	<!ATTLIST svg
		xmlns:ewd CDATA #FIXED "http://shcl.co.jp/ewd"
		xmlns:a CDATA #FIXED "http://ns.adobe.com/AdobeSVGViewerExtensions/3.0/"
		ewd:ver CDATA #IMPLIED>
	<!ATTLIST g
		ewd:pinNo CDATA #IMPLIED>
]>
<svg width="54.281" height="51.218" viewBox="0 0 54.281 51.218" style="overflow:visible;enable-background:new 0 0 54.281 51.218" xml:space="preserve" onload="call_execInitLoadProc_svg('connector')" ewd:ver="L2.1.2.5" xmlns="&ns_svg;" xmlns:ewd="http://shcl.co.jp/ewd" xmlns:a="http://ns.adobe.com/AdobeSVGViewerExtensions/3.0/" xmlns:xlink="&ns_xlink;">
<script type="text/javascript" xlink:href="../../../../../system/js/ewd/fig/svgfig.js"/>
<g id="レイヤー_1">
	<g>
		<path style="&st2;" d="M41.037,32.264c0.499-0.498,0.748-1.1,0.748-1.805"/>
		<path style="&st2;" d="M35.921,40.651c4.224,0,7.649-3.424,7.649-7.648"/>
		<path style="&st2;" d="M6.941,33.003c0,3.074,1.051,5.697,3.173,7.92"/>
		<path style="&st2;" d="M10.765,33.003c0,4.224,3.424,7.648,7.649,7.648"/>
		<path style="&st2;" d="M13.315,33.003c0,2.816,2.283,5.099,5.099,5.099"/>
		<path style="&st2;" d="M35.411,38.102c2.816,0,5.099-2.283,5.099-5.099"/>
		<path style="&st2;" d="M18.414,16.006c-2.816,0-5.099,2.283-5.099,5.099"/>
		<path style="&st2;" d="M43.57,21.105c0-4.224-3.425-7.649-7.649-7.649"/>
		<path style="&st2;" d="M41.785,23.649c0-0.705-0.25-1.306-0.749-1.804"/>
		<path style="&st2;" d="M35.921,44.476c6.237,0,11.315-4.955,11.47-11.19"/>
		<path style="&st2;" d="M40.51,21.105c0-2.816-2.283-5.099-5.099-5.099"/>
		<path style="&st2;" d="M18.414,13.456c-4.225,0-7.649,3.425-7.649,7.649"/>
		<path style="&st2;" d="M40.726,2.351c0-0.986-0.799-1.785-1.785-1.785"/>
		<path style="&st2;" d="M17.012,5.807c-0.986,0-1.785,0.799-1.785,1.785"/>
		<path style="&st1;" d="M3.17,34.272c0.285,3.429,1.496,6.269,3.772,8.849"/>
		<path style="&st2;" d="M37.465,7.592c0-0.986-0.799-1.785-1.785-1.785"/>
		<path style="&st1;" d="M1.315,24.606c-0.499,0.498-0.748,1.1-0.748,1.805"/>
		<path style="&st1;" d="M0.567,30.671c0,0.705,0.25,1.306,0.748,1.804"/>
		<path style="&st1;" d="M53.715,17.247c0-0.811-0.337-1.504-0.975-2.005"/>
		<path style="&st2;" d="M14.533,0.567c-0.985,0-1.785,0.799-1.785,1.785"/>
		<path style="&st2;" d="M12.748,6.895c-5.952,2.373-9.632,7.802-9.632,14.209"/>
		<path style="&st1;" d="M4.533,0.567c-0.782,0-1.416,0.634-1.416,1.416"/>
		<path style="&st1;" d="M48.811,1.983c0-0.782-0.634-1.416-1.417-1.416"/>
		<path style="&st1;" d="M6.941,47.819c0,1.564,1.269,2.833,2.833,2.833"/>
		<path style="&st2;" d="M47.394,21.105c0-6.336-5.137-11.473-11.473-11.473"/>
		<path style="&st2;" d="M18.414,9.632c-6.336,0-11.473,5.137-11.473,11.473"/>
		<path style="&st2;" d="M37.587,48.3c2.032,0,3.754-0.329,5.644-1.079"/>
		<path style="&st1;" d="M51.301,44.017c1.492-0.592,2.415-1.951,2.415-3.555"/>
		<path style="&st1;" d="M43.142,50.651c2.347,0,4.249-1.902,4.249-4.249"/>
		<path style="&st2;" d="M15.1,43.986c1.131,0.341,2.132,0.489,3.314,0.489"/>
		<path style="&st2;" d="M40.51,32.791l0.527-0.527"/>
		<path style="&st2;" d="M18.414,13.456h17.507"/>
		<path style="&st2;" d="M41.785,23.649v6.81"/>
		<path style="&st2;" d="M18.414,40.651h17.507"/>
		<path style="&st2;" d="M13.315,21.105v11.898"/>
		<path style="&st1;" d="M1.315,24.606l1.802-1.802V1.983"/>
		<path style="&st2;" d="M12.748,6.895V2.351"/>
		<path style="&st2;" d="M17.564,23.654v8.499h16.997v-8.499H17.564"/>
		<path style="&st2;" d="M18.414,16.006h16.997"/>
		<path style="&st2;" d="M47.394,21.105v5.524"/>
		<path style="&st2;" d="M18.414,44.476h17.507"/>
		<path style="&st2;" d="M40.51,21.317l0.527,0.527"/>
		<path style="&st2;" d="M18.414,38.102h16.997"/>
		<path style="&st2;" d="M10.114,40.923v6.612H15.1v-3.549"/>
		<path style="&st2;" d="M43.57,21.105v11.898"/>
		<path style="&st2;" d="M40.51,31.516v1.487"/>
		<path style="&st2;" d="M33.003,13.456V5.807"/>
		<path style="&st2;" d="M40.51,22.592h-3.683v8.924h3.683"/>
		<path style="&st1;" d="M1.315,32.476l1.802,1.802"/>
		<path style="&st2;" d="M6.941,26.629H3.117v3.824h3.824"/>
		<path style="&st2;" d="M10.765,21.105v11.898"/>
		<path style="&st2;" d="M19.689,10.396h13.314"/>
		<path style="&st2;" d="M47.394,26.629h3.824v3.824h-3.827"/>
		<path style="&st1;" d="M0.567,30.671v-4.26"/>
		<path style="&st1;" d="M53.715,40.462V17.247"/>
		<path style="&st2;" d="M19.689,13.456V5.807"/>
		<path style="&st2;" d="M17.012,5.807H35.68"/>
		<path style="&st2;" d="M40.726,5.807V2.351"/>
		<path style="&st1;" d="M4.533,0.567h42.861"/>
		<path style="&st2;" d="M15.227,10.082v-2.49"/>
		<path style="&st2;" d="M19.689,7.72h13.314"/>
		<path style="&st2;" d="M37.465,9.737V7.592"/>
		<path style="&st2;" d="M18.414,9.632h1.274"/>
		<path style="&st2;" d="M17.457,9.671v3.785"/>
		<path style="&st2;" d="M35.233,9.632v3.824"/>
		<path style="&st2;" d="M35.921,9.632h-2.918"/>
		<path style="&st1;" d="M43.142,50.651H9.774"/>
		<path style="&st2;" d="M6.941,21.105v5.524"/>
		<path style="&st2;" d="M6.941,30.453v2.55"/>
		<path style="&st2;" d="M47.391,33.286v-2.833"/>
		<path style="&st2;" d="M40.51,22.592v-1.487"/>
		<path style="&st2;" d="M18.151,48.3h19.436"/>
		<path style="&st2;" d="M26.063,32.153v-8.499"/>
		<path style="&st1;" d="M48.811,12.156V1.983"/>
		<path style="&st2;" d="M40.726,5.807l8.085,6.348"/>
		<path style="&st1;" d="M48.811,12.156l3.929,3.085"/>
		<path style="&st1;" d="M6.941,47.819v-4.697"/>
		<path style="&st1;" d="M47.391,46.402v-0.833"/>
		<path style="&st1;" d="M43.23,47.221l4.162-1.652"/>
		<path style="&st1;" d="M47.315,45.601l3.985-1.583"/>
		<path style="&st2;" d="M17.083,50.651l1.068-2.351"/>
		<g ewd:pinNo="1">
			<text transform="matrix(0.88 0 0 1 20.1477 29.873)"><tspan x="0" y="0" style="&st3; &st0;">1</tspan></text>
		</g>
		<g ewd:pinNo="2">
			<text transform="matrix(0.88 0 0 1 28.6462 29.873)"><tspan x="0" y="0" style="&st3; &st0;">2</tspan></text>
		</g>
	</g>
</g>
</svg>