﻿<?xml version="1.0"?>
<!-- Generator: Adobe Illustrator 10.0, SVG Export Plug-In . SVG Version: 3.0.0 Build 77)  -->
<!DOCTYPE svg PUBLIC "-//W3C//DTD SVG 1.0//EN" "http://www.w3.org/TR/2001/REC-SVG-20010904/DTD/svg10.dtd"[
	<!ENTITY ns_flows "http://ns.adobe.com/Flows/1.0/">
	<!ENTITY ns_svg "http://www.w3.org/2000/svg">
	<!ENTITY ns_xlink "http://www.w3.org/1999/xlink">
	<!ENTITY st0 "font-size:6.6349px;">
	<!ENTITY st1 "fill:none;stroke:#000000;stroke-width:1.1331;stroke-linecap:round;stroke-linejoin:round;">
	<!ENTITY st2 "fill:none;stroke:#000000;stroke-width:0.8499;stroke-linecap:round;stroke-linejoin:round;">
	<!ENTITY st3 "font-family:'Arial';">
	<!ATTLIST svg
		xmlns:ewd CDATA #FIXED "http://shcl.co.jp/ewd"
		xmlns:a CDATA #FIXED "http://ns.adobe.com/AdobeSVGViewerExtensions/3.0/"
		ewd:ver CDATA #IMPLIED>
	<!ATTLIST g
		ewd:pinNo CDATA #IMPLIED>
]>
<svg width="127.195" height="70.538" viewBox="0 0 127.195 70.538" style="overflow:visible;enable-background:new 0 0 127.195 70.538" xml:space="preserve" onload="call_execInitLoadProc_svg('connector')" ewd:ver="L2.1.2.5" xmlns="&ns_svg;" xmlns:ewd="http://shcl.co.jp/ewd" xmlns:a="http://ns.adobe.com/AdobeSVGViewerExtensions/3.0/" xmlns:xlink="&ns_xlink;">
<script type="text/javascript" xlink:href="../../../../../system/js/ewd/fig/svgfig.js"/>
<g id="レイヤー_1">
	<g>
		<path style="&st1;" d="M120.68,3.966c-1.663-2.216-4.028-3.399-6.799-3.399"/>
		<path style="&st2;" d="M92.634,7.139c0-1.095-0.888-1.983-1.983-1.983"/>
		<path style="&st2;" d="M49.348,5.156c-1.095,0-1.983,0.888-1.983,1.983"/>
		<path style="&st1;" d="M13.314,0.566c-2.771,0-5.137,1.183-6.799,3.399"/>
		<path style="&st2;" d="M102.209,4.816c0-2.347-1.903-4.25-4.25-4.25"/>
		<path style="&st2;" d="M42.054,0.566c-2.347,0-4.25,1.903-4.25,4.25"/>
		<path style="&st2;" d="M119.546,14.731c-0.782,0-1.417,0.634-1.417,1.417"/>
		<path style="&st2;" d="M9.065,16.147c0-0.782-0.634-1.417-1.417-1.417"/>
		<path style="&st2;" d="M87.648,9.065c0-0.783-0.634-1.417-1.417-1.417"/>
		<path style="&st2;" d="M53.739,7.649c-0.782,0-1.417,0.634-1.417,1.417"/>
		<path style="&st1;" d="M126.628,12.629c0-0.503-0.11-0.931-0.354-1.371"/>
		<path style="&st1;" d="M0.92,11.258c-0.244,0.44-0.354,0.868-0.354,1.371"/>
		<path style="&st1;" d="M120.963,61.473h5.666V58.64"/>
		<path style="&st2;" d="M54.447,18.98h31.105"/>
		<path style="&st2;" d="M92.634,18.98V7.139"/>
		<path style="&st2;" d="M0.566,58.64h126.062"/>
		<path style="&st2;" d="M63.598,5.156h27.054"/>
		<path style="&st1;" d="M120.68,3.966l5.595,7.292"/>
		<path style="&st1;" d="M126.628,58.64V12.629"/>
		<path style="&st1;" d="M120.963,61.473L98.3,69.972"/>
		<path style="&st2;" d="M82.719,16.855h-4.235"/>
		<path style="&st2;" d="M87.648,9.065v9.915h-2.125"/>
		<path style="&st2;" d="M61.515,18.98v-8.499h16.941v8.499"/>
		<path style="&st2;" d="M52.323,9.065v7.79h2.125"/>
		<path style="&st2;" d="M9.065,24.646v25.496H118.13V24.646H98.3v12.748H38.81V24.646H9.065"/>
		<path style="&st2;" d="M9.065,37.394H38.81"/>
		<path style="&st2;" d="M58.697,18.98l-2.833-4.25h-1.417v4.25"/>
		<path style="&st2;" d="M98.3,37.394h19.83"/>
		<path style="&st2;" d="M38.81,50.142V37.394"/>
		<path style="&st2;" d="M98.3,50.142V37.394"/>
		<path style="&st2;" d="M57.28,16.855h4.235"/>
		<path style="&st2;" d="M18.98,50.142V24.646"/>
		<path style="&st2;" d="M28.895,50.142V24.646"/>
		<path style="&st2;" d="M81.303,18.98l2.833-4.25h1.417v4.25"/>
		<path style="&st2;" d="M48.725,50.142V37.394"/>
		<path style="&st2;" d="M58.64,50.142V37.394"/>
		<path style="&st2;" d="M68.555,50.142V37.394"/>
		<path style="&st2;" d="M78.47,50.142V37.394"/>
		<path style="&st2;" d="M88.385,50.142V37.394"/>
		<path style="&st2;" d="M108.215,50.142V24.646"/>
		<path style="&st1;" d="M13.314,0.566h100.566"/>
		<path style="&st1;" d="M6.516,3.966L0.92,11.258"/>
		<path style="&st1;" d="M0.566,58.64V12.629"/>
		<path style="&st2;" d="M120.963,61.473V58.64"/>
		<path style="&st2;" d="M47.365,18.98V7.139"/>
		<path style="&st1;" d="M6.232,61.473l22.663,8.499"/>
		<path style="&st2;" d="M126.628,18.98H92.634"/>
		<path style="&st2;" d="M63.598,5.156h-14.25"/>
		<path style="&st2;" d="M102.209,18.98V4.816"/>
		<path style="&st1;" d="M28.895,69.972H98.3"/>
		<path style="&st1;" d="M6.232,61.473H0.566V58.64"/>
		<path style="&st2;" d="M6.232,61.473V58.64"/>
		<path style="&st2;" d="M0.566,18.98h46.799"/>
		<path style="&st2;" d="M37.804,18.98V4.816"/>
		<path style="&st2;" d="M53.739,7.649h32.493"/>
		<path style="&st2;" d="M126.628,14.731h-7.082"/>
		<path style="&st2;" d="M118.13,18.98v-2.833"/>
		<path style="&st2;" d="M0.566,14.731h7.082"/>
		<path style="&st2;" d="M9.065,18.98v-2.833"/>
		<path style="&st2;" d="M98.3,69.972v-2.833"/>
		<path style="&st2;" d="M28.895,69.972v-2.833"/>
		<path style="&st2;" d="M120.963,58.64L98.3,67.139H28.895L6.232,58.64"/>
		<path style="&st2;" d="M0.566,52.975h126.062"/>
		<path style="&st2;" d="M9.065,58.64v-5.666"/>
		<path style="&st2;" d="M10.481,58.64v-5.666"/>
		<path style="&st2;" d="M10.481,57.224h9.915"/>
		<path style="&st2;" d="M20.396,58.64v-5.666"/>
		<path style="&st2;" d="M106.799,58.64v-5.666"/>
		<path style="&st2;" d="M116.713,58.64v-5.666"/>
		<path style="&st2;" d="M118.13,58.64v-5.666"/>
		<path style="&st2;" d="M116.713,57.224h-9.915"/>
		<path style="&st2;" d="M26.771,52.975v2.833h22.663v-2.833"/>
		<path style="&st2;" d="M55.099,52.975v2.833h16.997v-2.833"/>
		<path style="&st2;" d="M77.762,52.975v2.833h22.663v-2.833"/>
		<path style="&st2;" d="M92.634,18.98v9.207h-7.11V18.98"/>
		<path style="&st2;" d="M95.467,31.02H82.691"/>
		<path style="&st2;" d="M123.796,21.813H95.467"/>
		<path style="&st2;" d="M95.467,31.02v-9.207"/>
		<path style="&st2;" d="M3.399,52.975V21.813"/>
		<path style="&st2;" d="M123.796,21.813v31.162"/>
		<path style="&st2;" d="M73.541,18.98v9.207H66.43V18.98"/>
		<path style="&st2;" d="M76.374,31.02H63.598"/>
		<path style="&st2;" d="M76.374,31.02v-9.207"/>
		<path style="&st2;" d="M76.374,21.813h6.317v9.207"/>
		<path style="&st2;" d="M63.598,31.02v-9.207H3.399"/>
		<path style="&st2;" d="M123.796,21.813l2.833-2.833"/>
		<path style="&st2;" d="M95.467,21.813l-2.833-2.833"/>
		<path style="&st2;" d="M82.691,21.813l2.833-2.833"/>
		<path style="&st2;" d="M76.374,21.813l-2.833-2.833"/>
		<path style="&st2;" d="M95.467,31.02l-2.833-2.833"/>
		<path style="&st2;" d="M82.691,31.02l2.833-2.833"/>
		<path style="&st2;" d="M63.598,31.02l2.833-2.833"/>
		<path style="&st2;" d="M73.541,28.187l2.833,2.833"/>
		<path style="&st2;" d="M66.43,18.98l-2.833,2.833"/>
		<path style="&st2;" d="M3.399,21.813L0.566,18.98"/>
		<path style="&st2;" d="M66.43,17.564h7.111"/>
		<path style="&st2;" d="M66.43,18.98v-8.499"/>
		<path style="&st2;" d="M73.541,18.98v-8.499"/>
		<path style="&st2;" d="M47.365,18.98h7.082"/>
		<g ewd:pinNo="1">
			<text transform="matrix(0.88 0 0 1 12.3569 32.9893)"><tspan x="0" y="0" style="&st3; &st0;">1</tspan></text>
		</g>
		<g ewd:pinNo="6">
			<text transform="matrix(0.88 0 0 1 12.3569 45.7368)"><tspan x="0" y="0" style="&st3; &st0;">6</tspan></text>
		</g>
		<g ewd:pinNo="2">
			<text transform="matrix(0.88 0 0 1 22.272 32.9893)"><tspan x="0" y="0" style="&st3; &st0;">2</tspan></text>
		</g>
		<g ewd:pinNo="7">
			<text transform="matrix(0.88 0 0 1 22.272 45.7368)"><tspan x="0" y="0" style="&st3; &st0;">7</tspan></text>
		</g>
		<g ewd:pinNo="3">
			<text transform="matrix(0.88 0 0 1 32.1865 32.9893)"><tspan x="0" y="0" style="&st3; &st0;">3</tspan></text>
		</g>
		<g ewd:pinNo="8">
			<text transform="matrix(0.88 0 0 1 32.1865 45.7368)"><tspan x="0" y="0" style="&st3; &st0;">8</tspan></text>
		</g>
		<g ewd:pinNo="9">
			<text transform="matrix(0.88 0 0 1 42.1016 45.7368)"><tspan x="0" y="0" style="&st3; &st0;">9</tspan></text>
		</g>
		<g ewd:pinNo="10">
			<text transform="matrix(0.88 0 0 1 50.3511 45.7368)"><tspan x="0" y="0" style="&st3; &st0;">1</tspan></text>
			<text transform="matrix(0.88 0 0 1 53.709 45.7368)"><tspan x="0" y="0" style="&st3; &st0;">0</tspan></text>
		</g>
		<g ewd:pinNo="11">
			<text transform="matrix(0.88 0 0 1 60.2661 45.7368)"><tspan x="0" y="0" style="&st3; &st0;">1</tspan></text>
			<text transform="matrix(0.88 0 0 1 63.624 45.7368)"><tspan x="0" y="0" style="&st3; &st0;">1</tspan></text>
		</g>
		<g ewd:pinNo="12">
			<text transform="matrix(0.88 0 0 1 70.1812 45.7368)"><tspan x="0" y="0" style="&st3; &st0;">1</tspan></text>
			<text transform="matrix(0.88 0 0 1 73.5391 45.7368)"><tspan x="0" y="0" style="&st3; &st0;">2</tspan></text>
		</g>
		<g ewd:pinNo="13">
			<text transform="matrix(0.88 0 0 1 80.0962 45.7368)"><tspan x="0" y="0" style="&st3; &st0;">1</tspan></text>
			<text transform="matrix(0.88 0 0 1 83.4541 45.7368)"><tspan x="0" y="0" style="&st3; &st0;">3</tspan></text>
		</g>
		<g ewd:pinNo="14">
			<text transform="matrix(0.88 0 0 1 90.0112 45.7368)"><tspan x="0" y="0" style="&st3; &st0;">1</tspan></text>
			<text transform="matrix(0.88 0 0 1 93.3691 45.7368)"><tspan x="0" y="0" style="&st3; &st0;">4</tspan></text>
		</g>
		<g ewd:pinNo="4">
			<text transform="matrix(0.88 0 0 1 101.5918 32.9893)"><tspan x="0" y="0" style="&st3; &st0;">4</tspan></text>
		</g>
		<g ewd:pinNo="15">
			<text transform="matrix(0.88 0 0 1 99.9263 45.7368)"><tspan x="0" y="0" style="&st3; &st0;">1</tspan></text>
			<text transform="matrix(0.88 0 0 1 103.2842 45.7368)"><tspan x="0" y="0" style="&st3; &st0;">5</tspan></text>
		</g>
		<g ewd:pinNo="5">
			<text transform="matrix(0.88 0 0 1 111.5068 32.9893)"><tspan x="0" y="0" style="&st3; &st0;">5</tspan></text>
		</g>
		<g ewd:pinNo="16">
			<text transform="matrix(0.88 0 0 1 109.8408 45.7368)"><tspan x="0" y="0" style="&st3; &st0;">1</tspan></text>
			<text transform="matrix(0.88 0 0 1 113.1992 45.7368)"><tspan x="0" y="0" style="&st3; &st0;">6</tspan></text>
		</g>
	</g>
</g>
</svg>