﻿<?xml version="1.0"?>
<!-- Generator: Adobe Illustrator 10.0, SVG Export Plug-In . SVG Version: 3.0.0 Build 77)  -->
<!DOCTYPE svg PUBLIC "-//W3C//DTD SVG 1.0//EN" "http://www.w3.org/TR/2001/REC-SVG-20010904/DTD/svg10.dtd"[
	<!ENTITY ns_flows "http://ns.adobe.com/Flows/1.0/">
	<!ENTITY ns_svg "http://www.w3.org/2000/svg">
	<!ENTITY ns_xlink "http://www.w3.org/1999/xlink">
	<!ENTITY st0 "font-size:6.6349px;">
	<!ENTITY st1 "fill:none;stroke:#000000;stroke-width:1.1331;stroke-linecap:round;stroke-linejoin:round;">
	<!ENTITY st2 "fill:none;stroke:#000000;stroke-width:0.8499;stroke-linecap:round;stroke-linejoin:round;">
	<!ENTITY st3 "font-family:'Arial';">
	<!ATTLIST svg
		xmlns:ewd CDATA #FIXED "http://shcl.co.jp/ewd"
		xmlns:a CDATA #FIXED "http://ns.adobe.com/AdobeSVGViewerExtensions/3.0/"
		ewd:ver CDATA #IMPLIED>
	<!ATTLIST g
		ewd:pinNo CDATA #IMPLIED>
]>
<svg width="35.127" height="52.691" viewBox="0 0 35.127 52.691" style="overflow:visible;enable-background:new 0 0 35.127 52.691" xml:space="preserve" onload="call_execInitLoadProc_svg('connector')" ewd:ver="L2.1.2.5" xmlns="&ns_svg;" xmlns:ewd="http://shcl.co.jp/ewd" xmlns:a="http://ns.adobe.com/AdobeSVGViewerExtensions/3.0/" xmlns:xlink="&ns_xlink;">
<script type="text/javascript" xlink:href="../../../../../system/js/ewd/fig/svgfig.js"/>
<g id="レイヤー_1">
	<g>
		<path style="&st2;" d="M11.898,6.799c-0.782,0-1.417,0.634-1.417,1.417"/>
		<path style="&st2;" d="M24.646,8.215c0-0.782-0.634-1.417-1.417-1.417"/>
		<path style="&st2;" d="M17.564,43.06V27.479"/>
		<path style="&st1;" d="M0.567,45.893h5.666"/>
		<path style="&st1;" d="M6.232,50.142h4.958"/>
		<path style="&st2;" d="M13.315,45.893v4.249"/>
		<path style="&st2;" d="M13.315,48.017h8.499"/>
		<path style="&st2;" d="M0.567,24.646h9.915"/>
		<path style="&st2;" d="M0.567,13.314h4.249"/>
		<path style="&st2;" d="M8.499,24.646V4.816"/>
		<path style="&st2;" d="M20.397,8.782v5.666"/>
		<path style="&st2;" d="M10.482,24.646V8.215"/>
		<path style="&st2;" d="M11.898,6.799h5.666"/>
		<path style="&st2;" d="M10.482,8.782h7.082"/>
		<path style="&st2;" d="M14.731,8.782v5.666"/>
		<path style="&st2;" d="M14.731,11.615h5.666"/>
		<path style="&st2;" d="M6.232,27.479V43.06h22.663V27.479H6.232"/>
		<path style="&st1;" d="M6.232,45.893L0.567,43.06V24.646"/>
		<path style="&st1;" d="M0.567,45.893v2.833l5.666,1.417"/>
		<path style="&st2;" d="M3.399,49.434v-3.541"/>
		<path style="&st1;" d="M23.938,50.142l-1.983,1.983h-8.782l-1.983-1.983"/>
		<path style="&st2;" d="M21.813,45.893v4.249"/>
		<path style="&st2;" d="M17.564,4.816H7.082l-2.266,8.499v11.332"/>
		<path style="&st1;" d="M0.567,24.646V4.816l4.249-4.249h12.748"/>
		<path style="&st2;" d="M24.646,8.782h-7.082"/>
		<path style="&st2;" d="M23.229,6.799h-5.666"/>
		<path style="&st2;" d="M24.646,24.646V8.215"/>
		<path style="&st2;" d="M26.629,24.646V4.816"/>
		<path style="&st1;" d="M34.561,24.646V4.816l-4.249-4.249H17.564"/>
		<path style="&st2;" d="M34.561,13.314h-4.249"/>
		<path style="&st2;" d="M34.561,24.646h-9.915"/>
		<path style="&st1;" d="M34.561,45.893v2.833l-5.666,1.417"/>
		<path style="&st2;" d="M21.813,45.893v4.249"/>
		<path style="&st2;" d="M17.564,4.816h10.481l2.267,8.499v11.332"/>
		<path style="&st1;" d="M28.895,45.893l5.666-2.833V24.646"/>
		<path style="&st2;" d="M31.728,49.434v-3.541"/>
		<path style="&st1;" d="M34.561,45.893h-5.666"/>
		<path style="&st2;" d="M28.895,45.893H6.232"/>
		<path style="&st1;" d="M28.895,50.142h-4.958"/>
		<path style="&st2;" d="M23.938,50.142H11.19"/>
		<g ewd:pinNo="1">
			<text transform="matrix(0.88 0 0 1 10.2322 37.2383)"><tspan x="0" y="0" style="&st3; &st0;">1</tspan></text>
		</g>
		<g ewd:pinNo="2">
			<text transform="matrix(0.88 0 0 1 21.5637 37.2383)"><tspan x="0" y="0" style="&st3; &st0;">2</tspan></text>
		</g>
	</g>
</g>
</svg>