﻿<?xml version="1.0" encoding="utf-8"?>
<!DOCTYPE svg PUBLIC "-//W3C//DTD SVG 1.0//EN" "http://www.w3.org/TR/2001/REC-SVG-20010904/DTD/svg10.dtd"[
	<!ENTITY ns_flows "http://ns.adobe.com/Flows/1.0/">
	<!ENTITY ns_svg "http://www.w3.org/2000/svg">
	<!ENTITY ns_xlink "http://www.w3.org/1999/xlink">
	<!ENTITY st0 "font-size:7px;font-family:'MS-PGothic';adobe-font-script:japanese;">
	<!ENTITY st1 "font-size:6px;font-family:'ArialMT';">
	<!-- White fill  -->
	<!ENTITY st2 "fill:#FFFFFF;stroke:#000000; stroke-width:1.41;stroke-linecap:round;stroke-linejoin:round;">
	<!-- Yellow fill  -->
	<!ENTITY st3 "fill:#FFFFCC;stroke:#FFFFCC; stroke-width:0.1;stroke-linecap:round;stroke-linejoin:round;">
	<!-- Gray fill  -->
	<!ENTITY st4 "fill:#CCCCCC;stroke:#CCCCCC; stroke-width:0.1;stroke-linecap:round;stroke-linejoin:round;">
	<!-- Light-blue fill -->
	<!ENTITY st5 "fill:#CCECF4;stroke:#000000; stroke-width:1.133;stroke-linecap:round;stroke-linejoin:round;">
	<!ENTITY st6 "fill:none;stroke-linecap:butt; stroke-linejoin:round;">
	<!ENTITY st7 "fill:none;stroke:#000000;stroke-linecap:round;stroke-linejoin:round;">
	<!ENTITY st8 "enable-background:new    ;">
	<!-- Black fill -->
	<!ENTITY st9 "fill:#000000;stroke:#000000; stroke-linecap:round;stroke-linejoin:round;">
	<!-- SRS note   -->
	<!ENTITY st10 "font-size:9px;font-family:'ArialMT';">
	<!ENTITY st11 "font-size:9px;font-family:'Svg Symbol';">
	<!ENTITY st12 "font-size:6px;font-family:'Svg Symbol';">
	<!ENTITY st13 "fill:none;stroke:#ff0000;stroke-linecap:round;stroke-linejoin:round;">
	<!-- Yellow fill  -->
	<!ENTITY st14 "fill:#FFFF00;stroke:#FFFF00; stroke-width:0.1;stroke-linecap:round;stroke-linejoin:round;">
	<!ENTITY st15 "font-size:6px;font-family:'MS-PGothic';adobe-font-script:japanese;">
	<!ENTITY st16 "1.00 0.00 0.00 1.00">
	<!ENTITY st17 "0.00 -1.00 1.00 0.00">
	<!ENTITY st18 "font-size:6px;font-family:'Arial';">
	<!ENTITY st19 "font-size:9px;font-family:'Arial';">
	<!ENTITY st20 "font-size:6px;font-family:'MS-PGothic','MS PGothic';adobe-font-script:japanese;">
	<!ENTITY st21 "font-size:7px;font-family:'MS-PGothic','MS PGothic';adobe-font-script:japanese;">
	<!ATTLIST svg
		xmlns:ewd CDATA #FIXED "http://shcl.co.jp/ewd"
		xmlns:a CDATA #FIXED "http://ns.adobe.com/AdobeSVGViewerExtensions/3.0/"
		ewd:ver CDATA #IMPLIED
	>
	<!ATTLIST a
		ewd:lineID CDATA #IMPLIED
		ewd:groupID CDATA #IMPLIED
		ewd:figtype CDATA #IMPLIED
		ewd:code CDATA #IMPLIED
		ewd:figID CDATA #IMPLIED
		ewd:pinNo CDATA #IMPLIED
		ewd:comment CDATA #IMPLIED >
	<!ATTLIST g
		ewd:lineID CDATA #IMPLIED
		ewd:groupID CDATA #IMPLIED
		ewd:figtype CDATA #IMPLIED
		ewd:code CDATA #IMPLIED
		ewd:figID CDATA #IMPLIED
		ewd:pinNo CDATA #IMPLIED
		ewd:comment CDATA #IMPLIED >
	<!ATTLIST text
		ewd:textID CDATA #IMPLIED >
	<!ATTLIST title
		ewd:textID CDATA #IMPLIED >
]>
<!-- Generator: Shintec Hozumi YS   -->
<svg onload="call_execInitLoadProc_svg('system')" style="overflow:visible;  enable-background:new 0 0 2048.866 710.000" viewBox="0 0 2048.866 710.000" height="710.000" width="2048.866" xml:space="preserve" ewd:ver="L2.1.2.5" xmlns="&ns_svg;" xmlns:a="http://ns.adobe.com/AdobeSVGViewerExtensions/3.0/" xmlns:ewd="http://shcl.co.jp/ewd" xmlns:xlink="&ns_xlink;">
<path d=" M 1844.19,  214.25  L 1839.13,  202.89 " style="stroke-width: 1.42 ;&st7; " /><path d=" M 1844.19,  214.25  L 1849.25,  202.89 " style="stroke-width: 1.42 ;&st7; " /><path d=" M 1793.20,  214.25  L 1788.14,  202.89 " style="stroke-width: 1.42 ;&st7; " /><path d=" M 1793.20,  214.25  L 1798.26,  202.89 " style="stroke-width: 1.42 ;&st7; " /><path d=" M 1725.21,  214.25  L 1720.15,  202.89 " style="stroke-width: 1.42 ;&st7; " /><path d=" M 1725.21,  214.25  L 1730.27,  202.89 " style="stroke-width: 1.42 ;&st7; " /><path d=" M 1674.22,  214.25  L 1669.16,  202.89 " style="stroke-width: 1.42 ;&st7; " /><path d=" M 1674.22,  214.25  L 1679.28,  202.89 " style="stroke-width: 1.42 ;&st7; " /><path d=" M 1869.69,  197.25  L 1874.75,  208.61 " style="stroke-width: 1.42 ;&st7; " /><path d=" M 1869.69,  197.25  L 1864.63,  208.61 " style="stroke-width: 1.42 ;&st7; " /><path d=" M 1818.70,  197.25  L 1823.76,  208.61 " style="stroke-width: 1.42 ;&st7; " /><path d=" M 1818.70,  197.25  L 1813.64,  208.61 " style="stroke-width: 1.42 ;&st7; " /><path d=" M 1750.71,  197.25  L 1755.77,  208.61 " style="stroke-width: 1.42 ;&st7; " /><path d=" M 1750.71,  197.25  L 1745.65,  208.61 " style="stroke-width: 1.42 ;&st7; " /><path d=" M 1699.72,  197.25  L 1704.78,  208.61 " style="stroke-width: 1.42 ;&st7; " /><path d=" M 1699.72,  197.25  L 1694.66,  208.61 " style="stroke-width: 1.42 ;&st7; " /><path d=" M 1946.17,  345.98  L 1946.17,  354.48 " style="stroke-width: 0.85 ;&st7; " /><path d=" M 1980.17,  354.48  L 1980.17,  345.98 " style="stroke-width: 0.85 ;&st7; " /><path d=" M 1920.68,   69.77  L 1920.68,   95.27 " style="stroke-width: 0.85 ;&st7; " /><path d=" M 1922.80,   95.27  L 1918.55,   95.27 " style="stroke-width: 1.42 ;&st7; " /><path d=" M 1922.80,  103.77  L 1918.55,  103.77 " style="stroke-width: 1.42 ;&st7; " /><path d=" M 1929.18,  163.26  L 1920.68,  163.26 " style="stroke-width: 1.42 ;&st7; " /><path d=" M 1895.18,  354.48  L 1895.18,  345.98 " style="stroke-width: 0.85 ;&st7; " /><path d=" M 1873.94,  401.22  L 1865.44,  401.22 " style="stroke-width: 0.85 ;&st7; " /><path d=" M 1882.42,  391.56  L 1875.06,  395.80 " style="stroke-width: 0.85 ;&st7; " /><path d=" M 1877.06,  399.27  L 1884.42,  395.02 " style="stroke-width: 0.85 ;&st7; " /><path d=" M 1861.19,  418.22  L 1861.19,  435.21 " style="stroke-width: 1.42 ;&st7; " /><path d=" M 1861.76,  429.92  L 1869.69,  435.21 " style="stroke-width: 0.85 ;&st7; " /><path d=" M 1869.69,  418.22  L 1861.19,  423.88 " style="stroke-width: 0.85 ;&st7; " /><path d=" M 1912.18,  401.22  L 1912.18,  418.22 " style="stroke-width: 0.85 ;&st7; " /><path d=" M 1793.20,  460.71  L 1793.20,  494.70  L 2022.66,  494.70  L 2022.66,  460.71  L 1793.20,  460.71 " style="stroke-width: 1.42 ;&st7; " /><path d=" M 2005.66,  316.23  L 2005.66,  350.23  L 1920.68,  350.23 " style="stroke-width: 0.85 ;&st7; " /><path d=" M 1946.17,  350.23  L 1937.68,  355.89  L 1937.68,  344.56  L 1946.17,  350.23 " style="stroke-width: 0.28 ;&st9;" /><path d=" M 1980.17,  350.23  L 1988.67,  344.56  L 1988.67,  355.89  L 1980.17,  350.23 " style="stroke-width: 0.28 ;&st9;" /><path d=" M 1920.68,  316.23  L 1920.68,  350.23 " style="stroke-width: 0.85 ;&st7; " /><path d=" M 1961.98,  349.22  L 1961.71,  349.69  L 1961.61,  350.23  L 1961.71,  350.76  L 1961.98,  351.23  L 1962.39,  351.58  L 1962.90,  351.76  L 1963.44,  351.76  L 1963.95,  351.58  L 1964.36,  351.23  L 1964.64,  350.76  L 1964.73,  350.23  L 1964.64,  349.69  L 1964.36,  349.22  L 1963.95,  348.88  L 1963.44,  348.69  L 1962.90,  348.69  L 1962.39,  348.88  L 1961.98,  349.22  L 1962.37,  349.94  L 1962.37,  350.52  L 1962.75,  350.96  L 1963.32,  351.06  L 1963.82,  350.77  L 1964.02,  350.23  L 1963.82,  349.68  L 1963.32,  349.39  L 1962.75,  349.49  L 1963.17,  350.23 " style="stroke-width: 0.85 ;&st7; " /><path d=" M 1954.67,  528.70  L 1954.67,  545.69 " style="stroke-width: 0.85 ;&st7; " /><path d=" M 1767.70,  316.23  L 1767.70,  545.69  L 2048.16,  545.69  L 2048.16,  316.23  L 1767.70,  316.23 " style="stroke-width: 1.42 ;&st7; " /><path d=" M 1920.68,  528.70  L 1920.68,  545.69 " style="stroke-width: 0.85 ;&st7; " /><path d=" M 1912.18,  511.70  L 1912.18,  528.70  L 1963.17,  528.70  L 1963.17,  511.70  L 1912.18,  511.70 " style="stroke-width: 1.42 ;&st7; " /><path d=" M 1920.68,  511.70  L 1920.68,  494.70 " style="stroke-width: 0.85 ;&st7; " /><path d=" M 1954.67,  511.70  L 1954.67,  494.70 " style="stroke-width: 0.85 ;&st7; " /><path d=" M 1895.18,  494.70  L 1895.18,  477.71  L 1980.17,  477.71  L 1980.17,  494.70 " style="stroke-width: 1.42 ;&st7; " /><path d=" M 1920.68,   90.37  L 1917.85,   87.54  L 1917.85,   91.79  L 1920.68,   94.62  L 1923.51,   91.79  L 1923.51,   87.54  L 1920.68,   90.37 " style="stroke-width: 0.28 ;&st9;" /><path d=" M 1907.93,   35.78  L 1907.93,   78.27  L 1933.43,   78.27  L 1933.43,   35.78  L 1907.93,   35.78 " style="stroke-width: 1.42 ;&st7; " /><path d=" M 1992.92,   35.78  L 1992.92,   78.27  L 2018.41,   78.27  L 2018.41,   35.78  L 1992.92,   35.78 " style="stroke-width: 1.42 ;&st7; " /><path d=" M 1924.93,  168.92  L 1920.68,  164.67  L 1916.43,  168.92 " style="stroke-width: 1.42 ;&st7; " /><path d=" M 1924.93,  172.32  L 1920.68,  168.07  L 1916.43,  172.32 " style="stroke-width: 1.42 ;&st7; " /><path d=" M 1963.17,  350.23  L 1963.17,  418.22 " style="stroke-width: 0.85 ;&st7; " /><path d=" M 1997.17,  438.05  L 1997.17,  426.71  L 1980.17,  426.71 " style="stroke-width: 0.85 ;&st7; " /><path d=" M 1994.33,  443.71  L 2000.00,  443.71 " style="stroke-width: 0.85 ;&st7; " /><path d=" M 1995.75,  446.54  L 1998.58,  446.54 " style="stroke-width: 0.85 ;&st7; " /><path d=" M 1988.67,  438.05  L 2005.66,  438.05 " style="stroke-width: 0.85 ;&st7; " /><path d=" M 1992.92,  440.88  L 2001.41,  440.88 " style="stroke-width: 0.85 ;&st7; " /><path d=" M 1946.17,  418.22  L 1946.17,  435.21  L 1980.17,  435.21  L 1980.17,  418.22  L 1946.17,  418.22 " style="stroke-width: 1.42 ;&st7; " /><path d=" M 1963.17,  460.71  L 1963.17,  435.21 " style="stroke-width: 0.85 ;&st7; " /><path d=" M 1912.18,  435.21  L 1912.18,  460.71 " style="stroke-width: 0.85 ;&st7; " /><path d=" M 1929.18,  418.22  L 1929.18,  435.21  L 1895.18,  435.21  L 1895.18,  418.22  L 1929.18,  418.22 " style="stroke-width: 1.42 ;&st7; " /><path d=" M 1869.69,  401.22  L 1864.02,  392.72  L 1875.35,  392.72  L 1869.69,  401.22 " style="stroke-width: 0.28 ;&st9;" /><path d=" M 1882.42,  391.56  L 1880.09,  394.60  L 1878.62,  392.05  L 1882.42,  391.56  L 1881.14,  392.29  L 1880.15,  393.58  L 1879.53,  392.50  L 1881.14,  392.29  L 1880.50,  392.67  L 1880.19,  393.07  L 1879.99,  392.73  L 1880.50,  392.67 " style="stroke-width: 0.85 ;&st7; " /><path d=" M 1884.42,  395.02  L 1882.09,  398.07  L 1880.62,  395.52  L 1884.42,  395.02  L 1883.14,  395.77  L 1882.16,  397.05  L 1881.54,  395.97  L 1883.14,  395.77  L 1882.50,  396.13  L 1882.19,  396.54  L 1882.00,  396.20  L 1882.50,  396.13 " style="stroke-width: 0.85 ;&st7; " /><path d=" M 1869.69,  418.22  L 1869.69,  384.22 " style="stroke-width: 0.85 ;&st7; " /><path d=" M 1861.19,  426.71  L 1844.19,  426.71  L 1844.19,  460.71 " style="stroke-width: 0.85 ;&st7; " /><path d=" M 1869.69,  435.21  L 1869.69,  443.71 " style="stroke-width: 0.85 ;&st7; " /><path d=" M 1861.19,  443.71  L 1878.19,  443.71 " style="stroke-width: 0.85 ;&st7; " /><path d=" M 1865.44,  446.54  L 1873.94,  446.54 " style="stroke-width: 0.85 ;&st7; " /><path d=" M 1866.85,  449.38  L 1872.52,  449.38 " style="stroke-width: 0.85 ;&st7; " /><path d=" M 1868.27,  452.21  L 1871.10,  452.21 " style="stroke-width: 0.85 ;&st7; " /><path d=" M 1869.69,  384.22  L 1869.69,  375.72  L 1866.85,  374.31  L 1872.52,  371.47  L 1866.85,  368.64  L 1872.52,  365.81  L 1866.85,  362.97  L 1872.52,  360.14  L 1869.69,  358.73  L 1869.69,  350.23 " style="stroke-width: 0.85 ;&st7; " /><path d=" M 1895.18,  350.23  L 1903.68,  344.56  L 1903.68,  355.89  L 1895.18,  350.23 " style="stroke-width: 0.28 ;&st9;" /><path d=" M 1919.49,  349.22  L 1919.21,  349.69  L 1919.12,  350.23  L 1919.21,  350.76  L 1919.49,  351.23  L 1919.90,  351.58  L 1920.41,  351.76  L 1920.95,  351.76  L 1921.46,  351.58  L 1921.87,  351.23  L 1922.14,  350.76  L 1922.24,  350.23  L 1922.14,  349.69  L 1921.87,  349.22  L 1921.46,  348.88  L 1920.95,  348.69  L 1920.41,  348.69  L 1919.90,  348.88  L 1919.49,  349.22  L 1919.88,  349.94  L 1919.88,  350.52  L 1920.25,  350.96  L 1920.83,  351.06  L 1921.33,  350.77  L 1921.53,  350.23  L 1921.33,  349.68  L 1920.83,  349.39  L 1920.25,  349.49  L 1920.68,  350.23 " style="stroke-width: 0.85 ;&st7; " /><path d=" M 1920.68,  350.23  L 1869.69,  350.23 " style="stroke-width: 0.85 ;&st7; " /><path d=" M 1929.18,  384.22  L 1929.18,  401.22  L 1895.18,  401.22  L 1895.18,  384.22  L 1929.18,  384.22 " style="stroke-width: 1.42 ;&st7; " /><path d=" M 1589.23,   95.27  L 1589.23,  129.26  L 1886.68,  129.26  L 1886.68,   95.27  L 1589.23,   95.27 " style="stroke-width: 1.42 ;&st7; " /><path d=" M 1754.96,  218.50  L 1750.71,  222.75  L 1714.59,  222.75  L 1712.46,  227.00  L 1710.34,  222.75  L 1674.22,  222.75  L 1669.97,  218.50 " style="stroke-width: 0.85 ;&st7; " /><path d=" M 1873.94,  218.50  L 1869.69,  222.75  L 1833.57,  222.75  L 1831.44,  227.00  L 1829.32,  222.75  L 1793.20,  222.75  L 1788.95,  218.50 " style="stroke-width: 0.85 ;&st7; " /><path d=" M 1920.68,   47.11  C 1917.94    48.72  1917.03    52.25  1918.64    54.99 " style="stroke-width: 1.42 ;&st7; " /><path d=" M 1918.64,   54.99  C 1919.16    55.87  1919.80    56.51  1920.68    57.03 " style="stroke-width: 1.42 ;&st7; " /><path d=" M 1920.68,   66.94  C 1923.42    65.33  1924.33    61.80  1922.72    59.06 " style="stroke-width: 1.42 ;&st7; " /><path d=" M 1922.72,   59.06  C 1922.20    58.18  1921.56    57.55  1920.68    57.03 " style="stroke-width: 1.42 ;&st7; " /><path d=" M 1922.10,   45.69  C 1922.10    44.91  1921.46    44.28  1920.68    44.28 " style="stroke-width: 0.85 ;&st7; " /><path d=" M 1920.68,   44.28  C 1919.90    44.28  1919.26    44.91  1919.26    45.69 " style="stroke-width: 0.85 ;&st7; " /><path d=" M 1919.26,   45.69  C 1919.26    46.48  1919.90    47.11  1920.68    47.11 " style="stroke-width: 0.85 ;&st7; " /><path d=" M 1920.68,   47.11  C 1921.46    47.11  1922.10    46.48  1922.10    45.69 " style="stroke-width: 0.85 ;&st7; " /><path d=" M 1922.10,   68.36  C 1922.10    67.57  1921.46    66.94  1920.68    66.94 " style="stroke-width: 0.85 ;&st7; " /><path d=" M 1920.68,   66.94  C 1919.90    66.94  1919.26    67.57  1919.26    68.36 " style="stroke-width: 0.85 ;&st7; " /><path d=" M 1919.26,   68.36  C 1919.26    69.14  1919.90    69.77  1920.68    69.77 " style="stroke-width: 0.85 ;&st7; " /><path d=" M 1920.68,   69.77  C 1921.46    69.77  1922.10    69.14  1922.10    68.36 " style="stroke-width: 0.85 ;&st7; " /><path d=" M 1918.55,   95.27  C 1916.21    95.27  1914.31    97.17  1914.31    99.52 " style="stroke-width: 1.42 ;&st7; " /><path d=" M 1922.80,  103.77  C 1925.15   103.77  1927.05   101.87  1927.05    99.52 " style="stroke-width: 1.42 ;&st7; " /><path d=" M 1914.31,   99.52  C 1914.31   101.87  1916.21   103.77  1918.55   103.77 " style="stroke-width: 1.42 ;&st7; " /><path d=" M 1927.05,   99.52  C 1927.05    97.17  1925.15    95.27  1922.80    95.27 " style="stroke-width: 1.42 ;&st7; " /><path d=" M 1999.29,   99.52  C 1999.29   101.87  2001.19   103.77  2003.54   103.77 " style="stroke-width: 1.42 ;&st7; " /><path d=" M 1925.21,  311.70  C 1925.21   309.20  1923.18   307.17  1920.68   307.17 " style="stroke-width: 1.42 ;&st7; " /><path d=" M 1920.68,  307.17  C 1918.18   307.17  1916.15   309.20  1916.15   311.70 " style="stroke-width: 1.42 ;&st7; " /><path d=" M 1916.15,  311.70  C 1916.15   314.20  1918.18   316.23  1920.68   316.23 " style="stroke-width: 1.42 ;&st7; " /><path d=" M 1920.68,  316.23  C 1923.18   316.23  1925.21   314.20  1925.21   311.70 " style="stroke-width: 1.42 ;&st7; " /><path d=" M 1999.29,  193.00  C 1999.29   195.35  2001.19   197.25  2003.54   197.25 " style="stroke-width: 1.42 ;&st7; " /><path d=" M 1999.29,  150.51  C 1999.29   152.86  2001.19   154.76  2003.54   154.76 " style="stroke-width: 1.42 ;&st7; " /><path d=" M 1925.21,  550.23  C 1925.21   547.72  1923.18   545.69  1920.68   545.69 " style="stroke-width: 1.42 ;&st7; " /><path d=" M 1920.68,  545.69  C 1918.18   545.69  1916.15   547.72  1916.15   550.23 " style="stroke-width: 1.42 ;&st7; " /><path d=" M 1916.15,  550.23  C 1916.15   552.73  1918.18   554.76  1920.68   554.76 " style="stroke-width: 1.42 ;&st7; " /><path d=" M 1920.68,  554.76  C 1923.18   554.76  1925.21   552.73  1925.21   550.23 " style="stroke-width: 1.42 ;&st7; " /><path d=" M 1959.21,  550.23  C 1959.21   547.72  1957.18   545.69  1954.67   545.69 " style="stroke-width: 1.42 ;&st7; " /><path d=" M 1954.67,  545.69  C 1952.17   545.69  1950.14   547.72  1950.14   550.23 " style="stroke-width: 1.42 ;&st7; " /><path d=" M 1950.14,  550.23  C 1950.14   552.73  1952.17   554.76  1954.67   554.76 " style="stroke-width: 1.42 ;&st7; " /><path d=" M 1954.67,  554.76  C 1957.18   554.76  1959.21   552.73  1959.21   550.23 " style="stroke-width: 1.42 ;&st7; " /><text style="&st18;" transform="matrix(&st16;  1906.64  160.98 )">1</text><text style="&st18;" transform="matrix(&st17;  1916.98  123.1 )">B</text><text style="&st18;" transform="matrix(&st16;  1923.51  542.0 )">CANL</text><text style="&st18;" transform="matrix(&st16;  1957.51  542.0 )">CANH</text><text style="&st18;" transform="matrix(&st16;  1925.1  522.17 )">CAN I/F</text><text style="&st18;" transform="matrix(&st16;  1577.98  635.48 )">G</text><text style="&st18;" transform="matrix(&st16;  1526.99  635.48 )">G</text><text style="&st18;" transform="matrix(&st16;  1526.39  609.99 )">W</text><text style="&st18;" transform="matrix(&st16;  1577.38  609.99 )">W</text><text style="&st18;" transform="matrix(&st17;  1950.98  582.44 )">G</text><text style="&st18;" transform="matrix(&st17;  1916.98  583.04 )">W</text><text style="&st18;" transform="matrix(&st16;  1905.43  488.17 )">CAN CONTROLLER</text><text style="&st18;" transform="matrix(&st16;  1841.16  479.67 )">CPU</text><text style="&st18;" transform="matrix(&st16;  1989.8  194.97 )">14</text><text style="&st18;" transform="matrix(&st16;  1989.02  152.48 )">36</text><text style="&st18;" transform="matrix(&st16;  1906.65  313.67 )">21</text><text style="&st18;" transform="matrix(&st16;  1918.35  313.67 )">A</text><text style="&st18;" transform="matrix(&st16;  1923.51  324.43 )">IG+</text><text style="&st18;" transform="matrix(&st16;  1918.7  101.49 )">2</text><text style="&st18;" transform="matrix(&st16;  1914.6  32.08 )">(IG)</text><text style="&st18;" transform="matrix(&st16;  1937.98  56.17 )">7.5A <tspan dy="6" x="0">METER</tspan></text><text style="&st18;" transform="matrix(&st16;  1998.88  86.47 )">2</text><text style="&st18;" transform="matrix(&st16;  1996.55  32.08 )">(BAT)</text><text style="&st18;" transform="matrix(&st16;  1995.59  313.67 )">1</text><text style="&st18;" transform="matrix(&st17;  1916.98  284.57 )">B</text><text style="&st18;" transform="matrix(&st16;  1913.89  86.47 )">2</text><text style="&st18;" transform="matrix(&st16;  1918.35  552.2 )">A</text><text style="&st18;" transform="matrix(&st16;  1905.87  552.2 )">32</text><text style="&st18;" transform="matrix(&st16;  1952.34  552.2 )">A</text><text style="&st18;" transform="matrix(&st16;  1940.65  552.2 )">31</text><text style="&st18;" transform="matrix(&st16;  1999.36  552.2 )">20</text><text style="&st18;" transform="matrix(&st16;  1939.4  445.68 )">5V+B</text><text style="&st18;" transform="matrix(&st16;  1954.24  428.68 )">5V IC</text><text ewd:textID="15" style="&st18;" transform="matrix(&st17;  1862.03  411.42 )">Seat Belt</text><text ewd:textID="4" style="&st18;" transform="matrix(&st16;  1765.18  312.54 )">Combination Meter Assembly</text><text style="&st18;" transform="matrix(&st16;  1765.18  305.43 )">G1(A)</text><text style="&st18;" transform="matrix(&st16;  1908.05  428.68 )">I/F</text><text ewd:textID="3" style="&st18;" transform="matrix(&st16;  1901.16  394.69 )">Buzzer</text><text style="&st18;" transform="matrix(&st16;  1623.36  125.57 )">CA1L</text><text style="&st18;" transform="matrix(&st16;  1597.37  125.57 )">CA1H</text><text style="&st18;" transform="matrix(&st16;  1595.49  137.46 )">37</text><text style="&st18;" transform="matrix(&st16;  1620.98  137.46 )">38</text><text style="&st18;" transform="matrix(&st17;  1602.54  165.59 )">B</text><text style="&st18;" transform="matrix(&st17;  1628.03  166.61 )">W</text><text style="&st18;" transform="matrix(&st16;  1668.11  125.57 )">FL+</text><text style="&st18;" transform="matrix(&st16;  1693.61  125.57 )">FL-</text><text style="&st18;" transform="matrix(&st16;  1718.61  125.57 )">FR+</text><text style="&st18;" transform="matrix(&st16;  1744.1  125.57 )">FR-</text><text style="&st18;" transform="matrix(&st16;  1786.74  125.57 )">RL+</text><text style="&st18;" transform="matrix(&st16;  1812.23  125.57 )">RL-</text><text style="&st18;" transform="matrix(&st16;  1837.23  125.57 )">RR+</text><text style="&st18;" transform="matrix(&st16;  1862.73  125.57 )">RR-</text><text style="&st18;" transform="matrix(&st16;  1862.9  137.46 )">9</text><text style="&st18;" transform="matrix(&st16;  1833.45  137.46 )">22</text><text style="&st18;" transform="matrix(&st16;  1811.91  137.46 )">7</text><text style="&st18;" transform="matrix(&st16;  1782.46  137.46 )">20</text><text style="&st18;" transform="matrix(&st16;  1743.92  137.46 )">5</text><text style="&st18;" transform="matrix(&st16;  1715.24  137.46 )">18</text><text style="&st18;" transform="matrix(&st16;  1688.97  137.46 )">32</text><text style="&st18;" transform="matrix(&st16;  1664.25  137.46 )">31</text><text style="&st18;" transform="matrix(&st17;  1865.99  165.59 )">B</text><text style="&st18;" transform="matrix(&st17;  1840.5  166.61 )">W</text><text style="&st18;" transform="matrix(&st17;  1815.0  165.59 )">B</text><text style="&st18;" transform="matrix(&st17;  1789.5  166.61 )">W</text><text style="&st18;" transform="matrix(&st17;  1747.01  165.24 )">L</text><text style="&st18;" transform="matrix(&st17;  1721.52  165.59 )">P</text><text style="&st18;" transform="matrix(&st17;  1696.02  166.01 )">G</text><text style="&st18;" transform="matrix(&st17;  1670.52  165.73 )">R</text><text ewd:textID="16" style="&st18;" transform="matrix(&st16;  1595.21  85.62 )">Skid Control ECU with Actuator <tspan dy="6" x="0">(Brake Booster with Master Cylinder Assembly)</tspan></text><text style="&st18;" transform="matrix(&st16;  1595.21  78.52 )">A41</text><text style="&st18;" transform="matrix(&st16;  1527.41  278.54 )">B</text><text style="&st18;" transform="matrix(&st16;  1578.4  278.54 )">B</text><text style="&st18;" transform="matrix(&st16;  1577.38  295.54 )">W</text><text style="&st18;" transform="matrix(&st16;  1526.39  295.54 )">W</text><text ewd:textID="9" style="&st18;" transform="matrix(&st17;  1510.47  259.27 )">Junction Connector</text><text style="&st18;" transform="matrix(&st17;  1503.36  259.27 )">A51(A),G71(B)</text><text ewd:textID="8" style="&st18;" transform="matrix(&st16;  1678.63  234.63 )">Front Speed Sensors</text><text ewd:textID="14" style="&st18;" transform="matrix(&st16;  1798.24  234.63 )">Rear Speed Sensors</text></svg>