﻿<?xml version="1.0" encoding="utf-8"?>
<!DOCTYPE svg PUBLIC "-//W3C//DTD SVG 1.0//EN" "http://www.w3.org/TR/2001/REC-SVG-20010904/DTD/svg10.dtd"[
	<!ENTITY ns_flows "http://ns.adobe.com/Flows/1.0/">
	<!ENTITY ns_svg "http://www.w3.org/2000/svg">
	<!ENTITY ns_xlink "http://www.w3.org/1999/xlink">
	<!ENTITY st0 "font-size:7px;font-family:'MS-PGothic';adobe-font-script:japanese;">
	<!ENTITY st1 "font-size:6px;font-family:'ArialMT';">
	<!-- White fill  -->
	<!ENTITY st2 "fill:#FFFFFF;stroke:#000000; stroke-width:1.41;stroke-linecap:round;stroke-linejoin:round;">
	<!-- Yellow fill  -->
	<!ENTITY st3 "fill:#FFFFCC;stroke:#FFFFCC; stroke-width:0.1;stroke-linecap:round;stroke-linejoin:round;">
	<!-- Gray fill  -->
	<!ENTITY st4 "fill:#CCCCCC;stroke:#CCCCCC; stroke-width:0.1;stroke-linecap:round;stroke-linejoin:round;">
	<!-- Light-blue fill -->
	<!ENTITY st5 "fill:#CCECF4;stroke:#000000; stroke-width:1.133;stroke-linecap:round;stroke-linejoin:round;">
	<!ENTITY st6 "fill:none;stroke-linecap:butt; stroke-linejoin:round;">
	<!ENTITY st7 "fill:none;stroke:#000000;stroke-linecap:round;stroke-linejoin:round;">
	<!ENTITY st8 "enable-background:new    ;">
	<!-- Black fill -->
	<!ENTITY st9 "fill:#000000;stroke:#000000; stroke-linecap:round;stroke-linejoin:round;">
	<!-- SRS note   -->
	<!ENTITY st10 "font-size:9px;font-family:'ArialMT';">
	<!ENTITY st11 "font-size:9px;font-family:'Svg Symbol';">
	<!ENTITY st12 "font-size:6px;font-family:'Svg Symbol';">
	<!ENTITY st13 "fill:none;stroke:#ff0000;stroke-linecap:round;stroke-linejoin:round;">
	<!-- Yellow fill  -->
	<!ENTITY st14 "fill:#FFFF00;stroke:#FFFF00; stroke-width:0.1;stroke-linecap:round;stroke-linejoin:round;">
	<!ENTITY st15 "font-size:6px;font-family:'MS-PGothic';adobe-font-script:japanese;">
	<!ENTITY st16 "1.00 0.00 0.00 1.00">
	<!ENTITY st17 "0.00 -1.00 1.00 0.00">
	<!ENTITY st18 "font-size:6px;font-family:'Arial';">
	<!ENTITY st19 "font-size:9px;font-family:'Arial';">
	<!ENTITY st20 "font-size:6px;font-family:'MS-PGothic','MS PGothic';adobe-font-script:japanese;">
	<!ENTITY st21 "font-size:7px;font-family:'MS-PGothic','MS PGothic';adobe-font-script:japanese;">
	<!ATTLIST svg
		xmlns:ewd CDATA #FIXED "http://shcl.co.jp/ewd"
		xmlns:a CDATA #FIXED "http://ns.adobe.com/AdobeSVGViewerExtensions/3.0/"
		ewd:ver CDATA #IMPLIED
	>
	<!ATTLIST a
		ewd:lineID CDATA #IMPLIED
		ewd:groupID CDATA #IMPLIED
		ewd:figtype CDATA #IMPLIED
		ewd:code CDATA #IMPLIED
		ewd:figID CDATA #IMPLIED
		ewd:pinNo CDATA #IMPLIED
		ewd:comment CDATA #IMPLIED >
	<!ATTLIST g
		ewd:lineID CDATA #IMPLIED
		ewd:groupID CDATA #IMPLIED
		ewd:figtype CDATA #IMPLIED
		ewd:code CDATA #IMPLIED
		ewd:figID CDATA #IMPLIED
		ewd:pinNo CDATA #IMPLIED
		ewd:comment CDATA #IMPLIED >
	<!ATTLIST text
		ewd:textID CDATA #IMPLIED >
	<!ATTLIST title
		ewd:textID CDATA #IMPLIED >
]>
<!-- Generator: Shintec Hozumi YS   -->
<svg onload="call_execInitLoadProc_svg('system')" style="overflow:visible;  enable-background:new 0 0 3544.616 710.000" viewBox="0 0 3544.616 710.000" height="710.000" width="3544.616" xml:space="preserve" ewd:ver="L2.1.2.5" xmlns="&ns_svg;" xmlns:a="http://ns.adobe.com/AdobeSVGViewerExtensions/3.0/" xmlns:ewd="http://shcl.co.jp/ewd" xmlns:xlink="&ns_xlink;">
<path d=" M  110.48,  401.22  L  110.48,  503.20  L  297.45,  503.20  L  297.45,  401.22  L  110.48,  401.22 " style="stroke-width: 0.85 ;&st7; " /><text ewd:textID="12" style="&st18;" transform="matrix(&st16;  82.46  369.19 )">* If the vehicle is equipped with a mobile communication system, refer to the precaution in the IN section of the <tspan dy="8.5" x="0">Repair Manual.</tspan></text><text ewd:textID="1" style="&st18;" transform="matrix(&st16;  82.46  352.2 )">* After work on the SRS is completed, check the SRS warning light.</text><text ewd:textID="13" style="&st18;" transform="matrix(&st16;  82.46  335.2 )">* Information labels are attached to the periphery of the SRS components. Follow the instructions of the notice.</text><text ewd:textID="22" style="&st18;" transform="matrix(&st16;  82.46  318.2 )">* Use a volt/ohmmeter with high impedance (10 kΩ/V minimum) for troubleshooting electrical circuits of the system.</text><text ewd:textID="11" style="&st18;" transform="matrix(&st16;  82.46  292.71 )">* If the following parts have been dropped, or have cracks, dents and other defects in their case, bracket, <tspan dy="8.49" x="0">and connector replace with new one.</tspan></text><text ewd:textID="8" style="&st18;" transform="matrix(&st16;  82.46  275.71 )">* For the purpose of reuse, never disassemble and repair the following parts.</text><text ewd:textID="16" style="&st18;" transform="matrix(&st16;  82.46  258.71 )">* Never use SRS parts from another vehicle. When replacing parts, replace with new parts.</text><text ewd:textID="7" style="&st18;" transform="matrix(&st16;  82.46  241.71 )">* Even in cases of a minor collision where the SRS does not deploy, the following parts should be inspected;</text><text ewd:textID="5" style="&st18;" transform="matrix(&st16;  82.46  224.72 )">* Do not expose the following parts directly to hot air or flame;</text><text ewd:textID="2" style="&st18;" transform="matrix(&st16;  82.46  207.72 )">* Before repair, remove the airbag sensor if shocks are likely to be applied to the sensor during repair.</text><text ewd:textID="24" style="&st18;" transform="matrix(&st16;  82.46  80.22 )">* Work must be started more than 90 seconds after the ignition or starter switch assembly is turned to the "LOCK" <tspan dy="8.5" x="0">position (Ignition switch type) or the power switch is pushed to the "OFF" position (Power switch type) and the </tspan><tspan dy="8.49" x="0">negative (-) terminal cable is disconnected from the battery. </tspan><tspan dy="8.5" x="0">(The SRS is equipped with a back-up power source so that if work is started within 90 seconds from disconnecting </tspan><tspan dy="8.5" x="0">the negative (-) terminal cable of the battery, the SRS may deploy.)</tspan></text><text ewd:textID="15" style="&st18;" transform="matrix(&st16;  82.46  46.25 )">* Malfunction symptoms of the SRS are difficult to confirm, so the DTCs become the most important source of <tspan dy="8.5" x="0">information when troubleshooting. When troubleshooting the SRS, always inspect the DTCs before disconnecting </tspan><tspan dy="8.49" x="0">the battery.</tspan></text><text ewd:textID="49" style="&st18;" transform="matrix(&st16;  82.46  20.75 )">NOTICE :When inspecting or repairing the SRS, perform service in accordance with the following precautionary <tspan dy="8.5" x="0">instructions and the procedure, and precautions in the Repair Manual applicable for the model year.</tspan></text><text ewd:textID="23" style="&st18;" transform="matrix(&st16;  82.46  131.23 )">* When the negative (-) terminal cable is disconnected from the battery, the memory of the clock and audio system <tspan dy="8.5" x="0">will be cleared. So before starting work, make a record of the contents in the audio memory system. When work is </tspan><tspan dy="8.5" x="0">finished, reset the audio systems as they were before and adjust the clock. Some vehicles have power tilt </tspan><tspan dy="8.5" x="0">steering, power telescopic steering, power seat and power outside rear view mirror which are all equipped with </tspan><tspan dy="8.5" x="0">memory function. However, it is not possible to make a record of these memory contents. So when the work is </tspan><tspan dy="8.5" x="0">finished, it will be necessary to explain it to your customer, and ask the customer to adjust the features and </tspan><tspan dy="8.49" x="0">reset the memory. To avoid erasing the memory in each system, never use a back-up power supply from outside the </tspan><tspan dy="8.5" x="0">vehicle.</tspan></text><text ewd:textID="21" style="&st18;" transform="matrix(&st16;  116.46  411.69 )">* Steering wheel pad</text><text ewd:textID="19" style="&st18;" transform="matrix(&st16;  116.46  428.68 )">* Side airbag assembly</text><text ewd:textID="10" style="&st18;" transform="matrix(&st16;  116.46  420.18 )">* Front passenger airbag assembly</text><text ewd:textID="4" style="&st18;" transform="matrix(&st16;  116.46  437.18 )">* Curtain shield airbag assembly</text><text ewd:textID="17" style="&st18;" transform="matrix(&st16;  116.46  454.18 )">* Seat belt pretensioner</text><text ewd:textID="3" style="&st18;" transform="matrix(&st16;  116.46  462.68 )">* Center airbag sensor assembly</text><text ewd:textID="9" style="&st18;" transform="matrix(&st16;  116.46  471.18 )">* Front airbag sensor assembly</text><text ewd:textID="20" style="&st18;" transform="matrix(&st16;  116.46  488.17 )">* Side airbag sensor assembly</text><text ewd:textID="14" style="&st18;" transform="matrix(&st16;  116.46  445.68 )">* Knee airbag assembly</text><text ewd:textID="6" style="&st18;" transform="matrix(&st16;  116.46  479.67 )">* Door side airbag sensor assembly</text><text ewd:textID="18" style="&st18;" transform="matrix(&st16;  116.46  496.67 )">* Seat cushion airbag</text></svg>