﻿<?xml version="1.0"?>
<!-- Generator: Adobe Illustrator 10.0, SVG Export Plug-In . SVG Version: 3.0.0 Build 77)  -->
<!DOCTYPE svg PUBLIC "-//W3C//DTD SVG 1.0//EN" "http://www.w3.org/TR/2001/REC-SVG-20010904/DTD/svg10.dtd"[
	<!ENTITY ns_flows "http://ns.adobe.com/Flows/1.0/">
	<!ENTITY ns_svg "http://www.w3.org/2000/svg">
	<!ENTITY ns_xlink "http://www.w3.org/1999/xlink">
	<!ENTITY st0 "fill:none;stroke:#000000;stroke-linecap:round;stroke-linejoin:round;">
	<!ENTITY st1 "fill:none;stroke:#000000;stroke-width:0.6;stroke-linecap:round;stroke-linejoin:round;">
	<!ENTITY st2 "fill:none;stroke:#000000;stroke-width:0.8;">
	<!ENTITY st3 "font-size:8px;">
	<!ENTITY st4 "font-family:'Arial';">
	<!ENTITY st5 "fill:none;stroke:#FFFFFF;stroke-width:0.2;">
	<!ATTLIST svg
		xmlns:ewd CDATA #FIXED "http://shcl.co.jp/ewd"
		xmlns:a CDATA #FIXED "http://ns.adobe.com/AdobeSVGViewerExtensions/3.0/"
		ewd:ver CDATA #IMPLIED>
	<!ATTLIST a
		ewd:innerGroupID CDATA #IMPLIED
		ewd:figtype CDATA #IMPLIED
		ewd:code CDATA #IMPLIED
		ewd:pinNo CDATA #IMPLIED>
]>
<svg width="510.436" height="680.514" viewBox="0 0 510.436 680.514" style="overflow:visible;enable-background:new 0 0 510.436 680.514" xml:space="preserve" onload="call_execInitLoadProc_svg('inner')" ewd:ver="L2.1.2.5" xmlns="&ns_svg;" xmlns:ewd="http://shcl.co.jp/ewd" xmlns:a="http://ns.adobe.com/AdobeSVGViewerExtensions/3.0/" xmlns:xlink="&ns_xlink;">
<script type="text/javascript" xlink:href="../../../../../system/js/ewd/fig/svgfig.js"/>
<g id="WAKU">
	<path style="&st5;" d="M510.336,680.415V0.1H0.1v680.314H510.336z"/>
</g>
<g id="レイヤ_xFF0D__1">
	<path style="&st0;" d="M149.235,211.254v220.963h220.964V211.254H149.235"/>
	<path style="&st1;" d="M149.235,236.75h220.964"/>
	<path style="&st1;" d="M149.235,270.745h220.964"/>
	<path style="&st1;" d="M149.235,304.739h220.964"/>
	<path style="&st1;" d="M149.235,338.733h220.964"/>
	<path style="&st1;" d="M149.235,372.728h220.964"/>
	<path style="&st1;" d="M149.235,406.722h220.964"/>
	<path style="&st1;" d="M259.716,236.75v212.464"/>
	<path style="&st1;" d="M258.524,235.748l-0.272,0.47l-0.093,0.533l0.093,0.532l0.272,0.471l0.413,0.345l0.508,0.187h0.543    l0.508-0.187l0.413-0.345l0.272-0.471l0.094-0.532l-0.094-0.533l-0.272-0.47l-0.413-0.346l-0.508-0.187h-0.543l-0.508,0.187    L258.524,235.748l0.394,0.711v0.583l0.374,0.445l0.572,0.099l0.505-0.289l0.197-0.547l-0.197-0.547l-0.505-0.289l-0.572,0.099    l0.425,0.737"/>
	<path style="&st1;" d="M258.524,269.742l-0.272,0.47l-0.093,0.533l0.093,0.533l0.272,0.47l0.413,0.346l0.508,0.187h0.543    l0.508-0.187l0.413-0.346l0.272-0.47l0.094-0.533l-0.094-0.533l-0.272-0.47l-0.413-0.346l-0.508-0.187h-0.543l-0.508,0.187    L258.524,269.742l0.394,0.711v0.583l0.374,0.445l0.572,0.099l0.505-0.289l0.197-0.547l-0.197-0.547l-0.505-0.289l-0.572,0.1    l0.425,0.736"/>
	<path style="&st1;" d="M258.524,303.736l-0.272,0.471l-0.093,0.532l0.093,0.533l0.272,0.47l0.413,0.346l0.508,0.187h0.543    l0.508-0.187l0.413-0.346l0.272-0.47l0.094-0.533l-0.094-0.532l-0.272-0.471l-0.413-0.345l-0.508-0.187h-0.543l-0.508,0.187    L258.524,303.736l0.394,0.711v0.583l0.374,0.445l0.572,0.099l0.505-0.289l0.197-0.547l-0.197-0.547l-0.505-0.289l-0.572,0.099    l0.425,0.736"/>
	<path style="&st1;" d="M258.524,337.73l-0.272,0.47l-0.093,0.533l0.093,0.532l0.272,0.47l0.413,0.346l0.508,0.187h0.543    l0.508-0.187l0.413-0.346l0.272-0.47l0.094-0.532l-0.094-0.533l-0.272-0.47l-0.413-0.346l-0.508-0.187h-0.543l-0.508,0.187    L258.524,337.73l0.394,0.711v0.583l0.374,0.445l0.572,0.099l0.505-0.289l0.197-0.546l-0.197-0.547l-0.505-0.289l-0.572,0.099    l0.425,0.737"/>
	<path style="&st1;" d="M258.524,371.724l-0.272,0.471l-0.093,0.533l0.093,0.532l0.272,0.47l0.413,0.346l0.508,0.188h0.543    l0.508-0.188l0.413-0.346l0.272-0.47l0.094-0.532l-0.094-0.533l-0.272-0.471l-0.413-0.345l-0.508-0.188h-0.543l-0.508,0.188    L258.524,371.724l0.394,0.712v0.583l0.374,0.444l0.572,0.1l0.505-0.288l0.197-0.547l-0.197-0.548l-0.505-0.288l-0.572,0.1    l0.425,0.736"/>
	<path style="&st1;" d="M258.524,405.719l-0.272,0.47l-0.093,0.533l0.093,0.532l0.272,0.47l0.413,0.346l0.508,0.188h0.543    l0.508-0.188l0.413-0.346l0.272-0.47l0.094-0.532l-0.094-0.533l-0.272-0.47l-0.413-0.346l-0.508-0.187h-0.543l-0.508,0.187    L258.524,405.719l0.394,0.711v0.583l0.374,0.445l0.572,0.1l0.505-0.29l0.197-0.546l-0.197-0.547l-0.505-0.289l-0.572,0.099    l0.425,0.737"/>
	<path style="&st1;" d="M259.716,469.512v4.249"/>
	<path style="&st1;" d="M251.218,473.761h16.998"/>
	<path style="&st1;" d="M255.467,476.594h8.499"/>
	<path style="&st1;" d="M256.884,479.427h5.666"/>
	<path style="&st1;" d="M258.3,482.26h2.833"/>
	<path style="&st0;" d="M273.555,449.214h-27.677l13.838,20.298L273.555,449.214"/>
</g>
<g id="キャプション">
	<g>
		<text transform="matrix(1 0 0 1 254.7183 459.2573)"><tspan x="0" y="0" style="&st4; &st3;">G6</tspan></text>
	</g>
	<text transform="matrix(1 0 0 1 121.5537 239.4077)"><tspan x="0" y="0" style="&st4; &st3;">1</tspan></text>
	<a ewd:code="7A" ewd:figtype="jbc" style="cursor:pointer;">
		<path style="fill:#FFFFFF;stroke:#000000;stroke-width:0.8;" d="M138.175,242.141c2.977,0,5.39-2.414,5.39-5.39c0-2.977-2.413-5.391-5.39-5.391h-4.582     c-2.977,0-5.39,2.414-5.39,5.391c0,2.977,2.413,5.39,5.39,5.39H138.175z"/>
		<text transform="matrix(1 0 0 1 130.9922 239.543)"><tspan x="0" y="0" style="&st4; &st3;">7A</tspan></text>
	</a>
	<text transform="matrix(1 0 0 1 377.7212 239.4077)"><tspan x="0" y="0" style="&st4; &st3;">1</tspan></text>
	<a ewd:code="7B" ewd:figtype="jbc" style="cursor:pointer;">
		<path style="fill:#FFFFFF;stroke:#000000;stroke-width:0.8;" d="M394.343,242.141c2.978,0,5.39-2.414,5.39-5.39c0-2.977-2.412-5.391-5.39-5.391h-4.582     c-2.977,0-5.391,2.414-5.391,5.391c0,2.977,2.414,5.39,5.391,5.39H394.343z"/>
		<text transform="matrix(1 0 0 1 387.1597 239.543)"><tspan x="0" y="0" style="&st4; &st3;">7B</tspan></text>
	</a>
	<text transform="matrix(1 0 0 1 377.7212 273.4019)"><tspan x="0" y="0" style="&st4; &st3;">2</tspan></text>
	<a ewd:code="7B" ewd:figtype="jbc" style="cursor:pointer;">
		<path style="fill:#FFFFFF;stroke:#000000;stroke-width:0.8;" d="M394.343,276.135c2.978,0,5.39-2.414,5.39-5.39c0-2.977-2.412-5.391-5.39-5.391h-4.582     c-2.977,0-5.391,2.414-5.391,5.391c0,2.977,2.414,5.39,5.391,5.39H394.343z"/>
		<text transform="matrix(1 0 0 1 387.1597 273.5376)"><tspan x="0" y="0" style="&st4; &st3;">7B</tspan></text>
	</a>
	<text transform="matrix(1 0 0 1 377.7212 307.396)"><tspan x="0" y="0" style="&st4; &st3;">3</tspan></text>
	<a ewd:code="7B" ewd:figtype="jbc" style="cursor:pointer;">
		<path style="fill:#FFFFFF;stroke:#000000;stroke-width:0.8;" d="M394.343,310.129c2.978,0,5.39-2.413,5.39-5.39c0-2.977-2.412-5.39-5.39-5.39h-4.582     c-2.977,0-5.391,2.413-5.391,5.39c0,2.977,2.414,5.39,5.391,5.39H394.343z"/>
		<text transform="matrix(1 0 0 1 387.1597 307.5317)"><tspan x="0" y="0" style="&st4; &st3;">7B</tspan></text>
	</a>
	<text transform="matrix(1 0 0 1 377.7212 341.3906)"><tspan x="0" y="0" style="&st4; &st3;">4</tspan></text>
	<a ewd:code="7B" ewd:figtype="jbc" style="cursor:pointer;">
		<path style="fill:#FFFFFF;stroke:#000000;stroke-width:0.8;" d="M394.343,344.124c2.978,0,5.39-2.414,5.39-5.39c0-2.977-2.412-5.391-5.39-5.391h-4.582     c-2.977,0-5.391,2.414-5.391,5.391c0,2.977,2.414,5.39,5.391,5.39H394.343z"/>
		<text transform="matrix(1 0 0 1 387.1597 341.5259)"><tspan x="0" y="0" style="&st4; &st3;">7B</tspan></text>
	</a>
	<text transform="matrix(1 0 0 1 377.7212 375.3843)"><tspan x="0" y="0" style="&st4; &st3;">5</tspan></text>
	<a ewd:code="7B" ewd:figtype="jbc" style="cursor:pointer;">
		<path style="fill:#FFFFFF;stroke:#000000;stroke-width:0.8;" d="M394.343,378.118c2.978,0,5.39-2.413,5.39-5.39c0-2.978-2.412-5.391-5.39-5.391h-4.582     c-2.977,0-5.391,2.413-5.391,5.391c0,2.977,2.414,5.39,5.391,5.39H394.343z"/>
		<text transform="matrix(1 0 0 1 387.1597 375.521)"><tspan x="0" y="0" style="&st4; &st3;">7B</tspan></text>
	</a>
	<text transform="matrix(1 0 0 1 377.7212 409.3794)"><tspan x="0" y="0" style="&st4; &st3;">6</tspan></text>
	<a ewd:code="7B" ewd:figtype="jbc" style="cursor:pointer;">
		<path style="fill:#FFFFFF;stroke:#000000;stroke-width:0.8;" d="M394.343,412.112c2.978,0,5.39-2.413,5.39-5.39c0-2.978-2.412-5.391-5.39-5.391h-4.582     c-2.977,0-5.391,2.413-5.391,5.391c0,2.977,2.414,5.39,5.391,5.39H394.343z"/>
		<text transform="matrix(1 0 0 1 387.1597 409.5142)"><tspan x="0" y="0" style="&st4; &st3;">7B</tspan></text>
	</a>
	<text transform="matrix(1 0 0 1 121.5537 273.4019)"><tspan x="0" y="0" style="&st4; &st3;">2</tspan></text>
	<a ewd:code="7A" ewd:figtype="jbc" style="cursor:pointer;">
		<path style="fill:#FFFFFF;stroke:#000000;stroke-width:0.8;" d="M138.175,276.135c2.977,0,5.39-2.414,5.39-5.39c0-2.977-2.413-5.391-5.39-5.391h-4.582     c-2.977,0-5.39,2.414-5.39,5.391c0,2.977,2.413,5.39,5.39,5.39H138.175z"/>
		<text transform="matrix(1 0 0 1 130.9922 273.5376)"><tspan x="0" y="0" style="&st4; &st3;">7A</tspan></text>
	</a>
	<text transform="matrix(1 0 0 1 121.5537 307.396)"><tspan x="0" y="0" style="&st4; &st3;">3</tspan></text>
	<a ewd:code="7A" ewd:figtype="jbc" style="cursor:pointer;">
		<path style="fill:#FFFFFF;stroke:#000000;stroke-width:0.8;" d="M138.175,310.129c2.977,0,5.39-2.413,5.39-5.39c0-2.977-2.413-5.39-5.39-5.39h-4.582     c-2.977,0-5.39,2.413-5.39,5.39c0,2.977,2.413,5.39,5.39,5.39H138.175z"/>
		<text transform="matrix(1 0 0 1 130.9922 307.5317)"><tspan x="0" y="0" style="&st4; &st3;">7A</tspan></text>
	</a>
	<text transform="matrix(1 0 0 1 121.5537 341.3906)"><tspan x="0" y="0" style="&st4; &st3;">4</tspan></text>
	<a ewd:code="7A" ewd:figtype="jbc" style="cursor:pointer;">
		<path style="fill:#FFFFFF;stroke:#000000;stroke-width:0.8;" d="M138.175,344.124c2.977,0,5.39-2.414,5.39-5.39c0-2.977-2.413-5.391-5.39-5.391h-4.582     c-2.977,0-5.39,2.414-5.39,5.391c0,2.977,2.413,5.39,5.39,5.39H138.175z"/>
		<text transform="matrix(1 0 0 1 130.9922 341.5259)"><tspan x="0" y="0" style="&st4; &st3;">7A</tspan></text>
	</a>
	<text transform="matrix(1 0 0 1 121.5537 375.3843)"><tspan x="0" y="0" style="&st4; &st3;">5</tspan></text>
	<a ewd:code="7A" ewd:figtype="jbc" style="cursor:pointer;">
		<path style="fill:#FFFFFF;stroke:#000000;stroke-width:0.8;" d="M138.175,378.118c2.977,0,5.39-2.413,5.39-5.39c0-2.978-2.413-5.391-5.39-5.391h-4.582     c-2.977,0-5.39,2.413-5.39,5.391c0,2.977,2.413,5.39,5.39,5.39H138.175z"/>
		<text transform="matrix(1 0 0 1 130.9922 375.521)"><tspan x="0" y="0" style="&st4; &st3;">7A</tspan></text>
	</a>
	<text transform="matrix(1 0 0 1 121.5537 409.3794)"><tspan x="0" y="0" style="&st4; &st3;">6</tspan></text>
	<a ewd:code="7A" ewd:figtype="jbc" style="cursor:pointer;">
		<path style="fill:#FFFFFF;stroke:#000000;stroke-width:0.8;" d="M138.175,412.112c2.977,0,5.39-2.413,5.39-5.39c0-2.978-2.413-5.391-5.39-5.391h-4.582     c-2.977,0-5.39,2.413-5.39,5.391c0,2.977,2.413,5.39,5.39,5.39H138.175z"/>
		<text transform="matrix(1 0 0 1 130.9922 409.5142)"><tspan x="0" y="0" style="&st4; &st3;">7A</tspan></text>
	</a>
</g>
</svg>